<?xml version="1.0" encoding="iso-8859-1"?>
<!-- Generator: Adobe Illustrator 16.0.0, SVG Export Plug-In . SVG Version: 6.00 Build 0)  -->
<!DOCTYPE svg PUBLIC "-//W3C//DTD SVG 1.1//EN" "http://www.w3.org/Graphics/SVG/1.1/DTD/svg11.dtd">
<svg version="1.1" id="Capa_1" xmlns="http://www.w3.org/2000/svg" xmlns:xlink="http://www.w3.org/1999/xlink" x="0px" y="0px"
	 width="31.916px" height="31.916px" viewBox="0 0 31.916 31.916" style="enable-background:new 0 0 31.916 31.916;"
	 xml:space="preserve">
<g>
	<g>
		<polygon points="2.066,13.501 2.066,16.791 4.3,16.791 4.3,31.916 5.711,31.916 5.711,16.791 26.268,16.791 26.268,31.916 
			27.679,31.916 27.679,16.791 29.85,16.791 29.85,13.501 		"/>
		<path d="M6.81,10.598v1.301H5.42v0.499H4.502v0.75h5.47v-0.75H9.069v-0.499H7.841V9.475c1.146-0.08,2.166-0.626,2.86-1.459
			c0.069-0.083,0.135-0.168,0.196-0.256c0.474-0.667,0.752-1.479,0.752-2.357c0-0.877-0.278-1.691-0.752-2.357
			c-0.061-0.088-0.127-0.174-0.195-0.257c-0.694-0.833-1.715-1.38-2.86-1.458V0h-0.66v0.265c-2.826,0.034-5.116,2.34-5.116,5.174
			C2.066,8.148,4.158,10.377,6.81,10.598z M7.393,9.141c-0.681-0.106-1.267-0.809-1.6-1.819c0.479-0.143,1.023-0.23,1.6-0.243V9.141
			z M5.384,3.694c-0.14,0.511-0.218,1.077-0.222,1.674H3.809c0.007-0.789,0.262-1.519,0.685-2.121
			C4.753,3.42,5.053,3.57,5.384,3.694z M4.692,2.991c0.445-0.529,1.033-0.935,1.704-1.155c-0.382,0.363-0.699,0.9-0.916,1.545
			C5.185,3.272,4.919,3.14,4.692,2.991z M5.17,5.703c0.02,0.5,0.097,0.974,0.214,1.408C5.053,7.236,4.752,7.386,4.493,7.559
			C4.118,7.026,3.876,6.391,3.821,5.703H5.17z M5.479,7.425C5.697,8.07,6.014,8.606,6.396,8.97C5.725,8.749,5.138,8.344,4.692,7.814
			C4.919,7.666,5.185,7.534,5.479,7.425z M7.393,6.743C6.785,6.758,6.21,6.851,5.699,7.006c-0.105-0.401-0.173-0.84-0.194-1.303
			h1.888V6.743z M7.393,5.368H5.499C5.502,4.807,5.574,4.277,5.7,3.8c0.512,0.154,1.086,0.247,1.693,0.262V5.368z M8.755,8.959
			c0.377-0.362,0.688-0.893,0.904-1.528c0.287,0.106,0.547,0.237,0.77,0.382C9.991,8.335,9.416,8.737,8.755,8.959z M10.628,7.559
			c-0.255-0.17-0.548-0.318-0.873-0.441c0.12-0.436,0.195-0.913,0.217-1.415h1.329C11.245,6.391,11.004,7.026,10.628,7.559z
			 M11.312,5.368H9.978c-0.002-0.6-0.084-1.168-0.224-1.68c0.326-0.123,0.619-0.271,0.874-0.441
			C11.052,3.849,11.305,4.579,11.312,5.368z M10.431,2.99C10.208,3.137,9.947,3.267,9.66,3.375C9.444,2.738,9.132,2.209,8.755,1.846
			C9.416,2.067,9.991,2.469,10.431,2.99z M7.728,1.662C8.417,1.756,9.01,2.463,9.346,3.479C8.862,3.625,8.312,3.713,7.728,3.727
			V1.662z M7.728,4.062C8.344,4.047,8.923,3.953,9.44,3.794c0.126,0.478,0.2,1.01,0.202,1.573H7.728V4.062z M7.728,5.703h1.908
			C9.615,6.168,9.547,6.61,9.443,7.012C8.924,6.853,8.345,6.758,7.728,6.743V5.703z M7.728,7.079
			c0.584,0.014,1.135,0.103,1.62,0.248C9.01,8.344,8.416,9.049,7.728,9.144V7.079z M7.393,1.665v2.063
			c-0.576-0.015-1.121-0.102-1.6-0.244C6.127,2.475,6.712,1.77,7.393,1.665z M7.182,0.916v0.42C6.075,1.438,5.094,1.98,4.42,2.789
			C4.351,2.872,4.285,2.958,4.223,3.045c-0.472,0.667-0.751,1.48-0.751,2.357s0.279,1.69,0.751,2.357
			c0.062,0.088,0.128,0.173,0.196,0.257c0.699,0.84,1.733,1.39,2.895,1.46v0.487c-0.023,0.001-0.047,0.003-0.07,0.003
			c-2.497,0-4.527-2.031-4.527-4.527C2.716,2.964,4.713,0.949,7.182,0.916z"/>
		<path d="M11.57,13.148h18.01v-0.805h-0.777l-0.116-2.045l-0.231,0.089c-0.688,0.27-1.367,0.401-2.076,0.401
			c-1.059,0-1.963-0.292-2.761-0.55c-0.685-0.221-1.266-0.406-1.762-0.346c-0.726,0.087-1.085,0.647-1.267,1.21
			c-0.182-0.563-0.541-1.123-1.268-1.21c-0.494-0.061-1.078,0.125-1.761,0.346c-0.798,0.258-1.703,0.549-2.761,0.55
			c-0.708,0-1.389-0.131-2.076-0.401l-0.233-0.089l-0.114,2.045H11.57V13.148z M21.899,10.25c0.427-0.053,0.966,0.125,1.606,0.332
			c0.783,0.253,1.758,0.567,2.871,0.567c0.676,0,1.323-0.111,1.977-0.339l0.076,1.353h-7.656
			C20.794,11.682,20.939,10.366,21.899,10.25z M12.825,10.81c0.651,0.228,1.3,0.339,1.976,0.339c1.115,0,2.09-0.314,2.871-0.567
			c0.643-0.207,1.182-0.384,1.607-0.332c0.957,0.115,1.104,1.431,1.126,1.912H12.75L12.825,10.81z"/>
	</g>
</g>
<g>
</g>
<g>
</g>
<g>
</g>
<g>
</g>
<g>
</g>
<g>
</g>
<g>
</g>
<g>
</g>
<g>
</g>
<g>
</g>
<g>
</g>
<g>
</g>
<g>
</g>
<g>
</g>
<g>
</g>
</svg>
